module gitlab.com/gitlab-org/security-products/analyzers/command

go 1.15

require (
	github.com/sirupsen/logrus v1.7.0
	github.com/urfave/cli/v2 v2.3.0
	gitlab.com/gitlab-org/security-products/analyzers/common/v2 v2.22.1
	gitlab.com/gitlab-org/security-products/analyzers/report/v2 v2.0.0
)
